<?xml version="1.0" encoding="UTF-8" standalone="no"?>
<!-- Created with Inkscape (http://www.inkscape.org/) -->

<svg
   width="120"
   height="120"
   viewBox="0 0 120 120"
   version="1.1"
   id="svg5"
   inkscape:version="1.2.1 (9c6d41e410, 2022-07-14)"
   sodipodi:docname="shrink.svg"
   xmlns:inkscape="http://www.inkscape.org/namespaces/inkscape"
   xmlns:sodipodi="http://sodipodi.sourceforge.net/DTD/sodipodi-0.dtd"
   xmlns="http://www.w3.org/2000/svg"
   xmlns:svg="http://www.w3.org/2000/svg">
  <sodipodi:namedview
     id="namedview7"
     pagecolor="#ffffff"
     bordercolor="#000000"
     borderopacity="0.25"
     inkscape:showpageshadow="2"
     inkscape:pageopacity="0.0"
     inkscape:pagecheckerboard="0"
     inkscape:deskcolor="#d1d1d1"
     inkscape:document-units="px"
     showgrid="false"
     inkscape:zoom="4.9615326"
     inkscape:cx="49.077578"
     inkscape:cy="76.790789"
     inkscape:window-width="1920"
     inkscape:window-height="989"
     inkscape:window-x="1920"
     inkscape:window-y="0"
     inkscape:window-maximized="1"
     inkscape:current-layer="layer1"
     showguides="false" />
  <defs
     id="defs2" />
  <g
     inkscape:label="Layer 1"
     inkscape:groupmode="layer"
     id="layer1">
    <rect
       style="opacity:0.99;fill:#000000;fill-opacity:0;stroke:#000000;stroke-width:3;stroke-linecap:butt;stroke-linejoin:round;stroke-dasharray:none;stroke-opacity:1"
       id="rect7492"
       width="98.961357"
       height="98.961357"
       x="10.682183"
       y="10.682183" />
    <path
       style="opacity:0.99;fill:#000000;fill-opacity:1;stroke:#000000;stroke-width:2.58928;stroke-linecap:butt;stroke-linejoin:round;stroke-dasharray:none;stroke-opacity:1"
       d="M 24.352868,16.779459 41.673892,34.341837 55.573105,20.972501 55.693064,56.005469 19.069116,55.973209 32.246853,41.797849 15.624314,25.40516 Z"
       id="path8948-3"
       sodipodi:nodetypes="cccccccc" />
    <path
       style="opacity:0.99;fill:#000000;fill-opacity:1;stroke:#000000;stroke-width:2.58928;stroke-linecap:butt;stroke-linejoin:round;stroke-dasharray:none;stroke-opacity:1"
       d="M 16.395415,96.170716 33.102688,79.348504 20.458167,64.659701 55.129834,65.225591 55.090357,101.95328 41.413809,88.276731 25.02112,104.89927 Z"
       id="path8948-3-5"
       sodipodi:nodetypes="cccccccc" />
    <path
       style="opacity:0.99;fill:#000000;fill-opacity:1;stroke:#000000;stroke-width:2.58928;stroke-linecap:butt;stroke-linejoin:round;stroke-dasharray:none;stroke-opacity:1"
       d="M 102.6875,25.765108 85.05386,41.874731 97.415443,56.469918 63.061175,56.361101 63.422481,20.053801 77.882882,33.659093 94.061794,17.036552 Z"
       id="path8948-3-6"
       sodipodi:nodetypes="cccccccc" />
    <path
       style="opacity:0.99;fill:#000000;fill-opacity:1;stroke:#000000;stroke-width:2.58928;stroke-linecap:butt;stroke-linejoin:round;stroke-dasharray:none;stroke-opacity:1"
       d="M 95.335449,105.79197 76.351017,88.674877 64.23557,102.19642 63.496447,66.396722 98.32669,66.448539 85.921496,80.567834 104.064,97.166269 Z"
       id="path8948-3-5-2"
       sodipodi:nodetypes="cccccccc" />
  </g>
</svg>
